Dato,Nye tilfeller,Totale tilfeller
2020-01-01,0,0
2020-01-02,0,0
2020-01-03,0,0
2020-01-04,0,0
2020-01-05,0,0
2020-01-06,0,0
2020-01-07,0,0
2020-01-08,0,0
2020-01-09,0,0
2020-01-10,0,0
2020-01-11,0,0
2020-01-12,0,0
2020-01-13,0,0
2020-01-14,0,0
2020-01-15,0,0
2020-01-16,0,0
2020-01-17,0,0
2020-01-18,0,0
2020-01-19,0,0
2020-01-20,0,0
2020-01-21,0,0
2020-01-22,0,0
2020-01-23,0,0
2020-01-24,0,0
2020-01-25,0,0
2020-01-26,0,0
2020-01-27,0,0
2020-01-28,0,0
2020-01-29,0,0
2020-01-30,0,0
2020-01-31,0,0
2020-02-01,0,0
2020-02-02,0,0
2020-02-03,0,0
2020-02-04,0,0
2020-02-05,0,0
2020-02-06,0,0
2020-02-07,0,0
2020-02-08,0,0
2020-02-09,0,0
2020-02-10,0,0
2020-02-11,0,0
2020-02-12,0,0
2020-02-13,0,0
2020-02-14,0,0
2020-02-15,0,0
2020-02-16,0,0
2020-02-17,0,0
2020-02-18,0,0
2020-02-19,0,0
2020-02-20,0,0
2020-02-21,0,0
2020-02-22,0,0
2020-02-23,0,0
2020-02-24,0,0
2020-02-25,0,0
2020-02-26,0,0
2020-02-27,1,1
2020-02-28,3,4
2020-02-29,2,6
2020-03-01,9,15
2020-03-02,4,19
2020-03-03,6,25
2020-03-04,8,33
2020-03-05,23,56
2020-03-06,30,86
2020-03-07,27,113
2020-03-08,34,147
2020-03-09,22,169
2020-03-10,23,192
2020-03-11,85,277
2020-03-12,212,489
2020-03-13,132,621
2020-03-14,0,621
2020-03-15,286,907
2020-03-16,170,1077
2020-03-17,92,1169
2020-03-18,139,1308
2020-03-19,115,1423
2020-03-20,129,1552
2020-03-21,190,1742
2020-03-22,184,1926
2020-03-23,206,2132
2020-03-24,239,2371
2020-03-25,195,2566
2020-03-26,350,2916
2020-03-27,240,3156
2020-03-28,425,3581
2020-03-29,264,3845
2020-03-30,257,4102
2020-03-31,124,4226
2020-04-01,221,4447
2020-04-02,218,4665
2020-04-03,270,4935
2020-04-04,273,5208
2020-04-05,302,5510
2020-04-06,130,5640
2020-04-07,115,5755
2020-04-08,108,5863
2020-04-09,147,6010
2020-04-10,150,6160
2020-04-11,84,6244
2020-04-12,76,6320
2020-04-13,95,6415
2020-04-14,73,6488
2020-04-15,78,6566
2020-04-16,111,6677
2020-04-17,114,6791
2020-04-18,0,6791
2020-04-19,193,6984
2020-04-20,84,7068
2020-04-21,45,7113
2020-04-22,53,7166
2020-04-23,84,7250
2020-04-24,95,7345
2020-04-25,63,7408
2020-04-26,59,7467
2020-04-27,38,7505
2020-04-28,28,7533
2020-04-29,72,7605
2020-04-30,62,7667
2020-05-01,43,7710
2020-05-02,49,7759
2020-05-03,0,7759
2020-05-04,50,7809
2020-05-05,38,7847
2020-05-06,56,7903
2020-05-07,50,7953
2020-05-08,42,7995
2020-05-09,39,8034
2020-05-10,35,8069
2020-05-11,30,8099
2020-05-12,7,8106
2020-05-13,29,8135
2020-05-14,23,8158
2020-05-15,17,8175
2020-05-16,22,8197
2020-05-17,0,8197
2020-05-18,0,8197
2020-05-19,52,8249
2020-05-20,8,8257
2020-05-21,11,8268
2020-05-22,0,8268
2020-05-23,41,8309
2020-05-24,0,8309
2020-05-25,0,8309
2020-05-26,43,8352
2020-05-27,12,8364
2020-05-28,19,8383
2020-05-29,18,8401
2020-05-30,10,8411
2020-05-31,0,8411
2020-06-01,0,8411
2020-06-02,0,8411
2020-06-03,35,8446
2020-06-04,0,8446
2020-06-05,31,8477
2020-06-06,27,8504
2020-06-07,0,8504
2020-06-08,0,8504
2020-06-09,43,8547
2020-06-10,16,8563
2020-06-11,13,8576
2020-06-12,18,8594
2020-06-13,12,8606
2020-06-14,0,8606
2020-06-15,0,8606
2020-06-16,25,8631
2020-06-17,0,8631
2020-06-18,29,8660
2020-06-19,32,8692
2020-06-20,0,8692
2020-06-21,16,8708
2020-06-22,0,8708
2020-06-23,37,8745
2020-06-24,6,8751
2020-06-25,26,8777
2020-06-26,16,8793
2020-06-27,22,8815
2020-06-28,0,8815
2020-06-29,0,8815
2020-06-30,40,8855
2020-07-01,10,8865
2020-07-02,22,8887
2020-07-03,8,8895
2020-07-04,0,8895
2020-07-05,0,8895
2020-07-06,0,8895
2020-07-07,35,8930
2020-07-08,6,8936
2020-07-09,11,8947
2020-07-10,7,8954
2020-07-11,11,8965
2020-07-12,0,8965
2020-07-13,0,8965
2020-07-14,16,8981
2020-07-15,3,8984
2020-07-16,17,9001
2020-07-17,10,9011
2020-07-18,4,9015
2020-07-19,0,9015
2020-07-20,0,9015
2020-07-21,13,9028
2020-07-22,10,9038
2020-07-23,15,9053
2020-07-24,9,9062
2020-07-25,23,9085
2020-07-26,0,9085
2020-07-27,0,9085
2020-07-28,32,9117
2020-07-29,15,9132
2020-07-30,18,9150
2020-07-31,22,9172
2020-08-01,36,9208
2020-08-02,0,9208
2020-08-03,0,9208
2020-08-04,60,9268
2020-08-05,65,9333
2020-08-06,29,9362
2020-08-07,47,9409
2020-08-08,59,9468
2020-08-09,0,9468
2020-08-10,0,9468
2020-08-11,170,9638
2020-08-12,46,9684
2020-08-13,66,9750
2020-08-14,33,9783
2020-08-15,67,9850
2020-08-16,0,9850
2020-08-17,0,9850
2020-08-18,154,10004
2020-08-19,56,10060
2020-08-20,51,10111
2020-08-21,51,10162
2020-08-22,35,10197
2020-08-23,0,10197
2020-08-24,0,10197
2020-08-25,126,10323
2020-08-26,72,10395
2020-08-27,59,10454
2020-08-28,51,10505
2020-08-29,38,10543
2020-08-30,0,10543
2020-08-31,0,10543
2020-09-01,101,10644
2020-09-02,139,10783
2020-09-03,88,10871
2020-09-04,164,11035
2020-09-05,85,11120
2020-09-06,0,11120
2020-09-07,0,11120
2020-09-08,267,11387
2020-09-09,132,11519
2020-09-10,105,11624
2020-09-11,122,11746
2020-09-12,120,11866
2020-09-13,0,11866
2020-09-14,0,11866
2020-09-15,289,12155
2020-09-16,122,12277
2020-09-17,116,12393
2020-09-18,106,12499
2020-09-19,146,12645
2020-09-20,0,12645
2020-09-21,0,12645
2020-09-22,251,12896
2020-09-23,104,13000
2020-09-24,152,13152
2020-09-25,123,13275
2020-09-26,131,13406
2020-09-27,0,13406
2020-09-28,0,13406
2020-09-29,292,13698
2020-09-30,90,13788
2020-10-01,126,13914
2020-10-02,113,14027
2020-10-03,122,14149
2020-10-04,0,14149
2020-10-05,0,14149
2020-10-06,308,14457
2020-10-07,147,14604
2020-10-08,180,14784
2020-10-09,228,15012
2020-10-10,209,15221
2020-10-11,0,15221
2020-10-12,0,15221
2020-10-13,303,15524
2020-10-14,115,15639
2020-10-15,152,15791
2020-10-16,162,15953
2020-10-17,183,16136
2020-10-18,0,16136
2020-10-19,0,16136
2020-10-20,320,16456
2020-10-21,147,16603
2020-10-22,168,16771
2020-10-23,193,16964
2020-10-24,268,17232
2020-10-25,0,17232
2020-10-26,0,17232
2020-10-27,676,17908
2020-10-28,433,18341
